module filesaver

go 1.20

require (
	github.com/go-redis/redis/v8 v8.11.5
	github.com/jackc/pgx/v4 v4.18.1
	github.com/jmoiron/sqlx v1.3.5
	github.com/joho/godotenv v1.5.1
	github.com/rs/zerolog v1.29.1
)

require (
	github.com/cespare/xxhash/v2 v2.1.2 // indirect
	github.com/dgryski/go-rendezvous v0.0.0-20200823014737-9f7001d12a5f // indirect
	github.com/jackc/chunkreader/v2 v2.0.1 // indirect
	github.com/jackc/pgconn v1.14.0 // indirect
	github.com/jackc/pgio v1.0.0 // indirect
	github.com/jackc/pgpassfile v1.0.0 // indirect
	github.com/jackc/pgproto3/v2 v2.3.2 // indirect
	github.com/jackc/pgservicefile v0.0.0-20221227161230-091c0ba34f0a // indirect
	github.com/jackc/pgtype v1.14.0 // indirect
	github.com/mattn/go-colorable v0.1.12 // indirect
	github.com/mattn/go-isatty v0.0.14 // indirect
	golang.org/x/crypto v0.6.0 // indirect
	golang.org/x/sys v0.5.0 // indirect
	golang.org/x/text v0.7.0 // indirect
)
